---
layout: post
title: "Rstudio Tutorial"
date: 2021-08-08
description: "R Tutorial"
tag: R
---

dplyr 1.0版本增加了`across()`函数，这个函数集中体现了dplyr宏包的强大和简约，今天我用企鹅数据，来领略它的美。

```
library(tidyverse)
library(palmerpenguins)
penguins
## # A tibble: 344 x 8
##   species island    bill_length_mm bill_depth_mm
##   <fct>   <fct>              <dbl>         <dbl>
## 1 Adelie  Torgersen           39.1          18.7
## 2 Adelie  Torgersen           39.5          17.4
## 3 Adelie  Torgersen           40.3          18  
## 4 Adelie  Torgersen           NA            NA  
## 5 Adelie  Torgersen           36.7          19.3
## 6 Adelie  Torgersen           39.3          20.6
## # ... with 338 more rows, and 4 more variables:
## #   flipper_length_mm <int>, body_mass_g <int>,
## #   sex <fct>, year <int>
```
…
### 1.3.4 不同分组下数据变量的多个分位数

事实上，这里是`across()`与`summarise()`的强大结合起来

```
penguins %>%
  group_by(species, island) %>%
  summarise(
    prob    = c(.25, .75),
    length  = quantile(bill_length_mm, prob, na.rm = TRUE),
    depth   = quantile(bill_depth_mm, prob, na.rm = TRUE),
    flipper = quantile(flipper_length_mm, prob, na.rm = TRUE)
  )
## # A tibble: 10 x 6
## # Groups:   species, island [5]
##   species island     prob length depth flipper
##   <fct>   <fct>     <dbl>  <dbl> <dbl>   <dbl>
## 1 Adelie  Biscoe     0.25   37.7  17.6    185.
## 2 Adelie  Biscoe     0.75   40.7  19.0    193 
## 3 Adelie  Dream      0.25   36.8  17.5    185 
## 4 Adelie  Dream      0.75   40.4  18.8    193 
## 5 Adelie  Torgersen  0.25   36.7  17.4    187 
## 6 Adelie  Torgersen  0.75   41.1  19.2    195 
## # ... with 4 more rows
```



```
# using across()
penguins %>%
  group_by(species, island) %>%
  summarise(
    prob = c(.25, .75),
    across(
      c(bill_length_mm, bill_depth_mm, flipper_length_mm),
      ~ quantile(., prob, na.rm = TRUE)
    )
  )
## # A tibble: 10 x 6
## # Groups:   species, island [5]
##   species island     prob bill_length_mm bill_depth_mm
##   <fct>   <fct>     <dbl>          <dbl>         <dbl>
## 1 Adelie  Biscoe     0.25           37.7          17.6
## 2 Adelie  Biscoe     0.75           40.7          19.0
## 3 Adelie  Dream      0.25           36.8          17.5
## 4 Adelie  Dream      0.75           40.4          18.8
## 5 Adelie  Torgersen  0.25           36.7          17.4
## 6 Adelie  Torgersen  0.75           41.1          19.2
## # ... with 4 more rows, and 1 more variable:
## #   flipper_length_mm <dbl>
```



```
# or
penguins %>%
  group_by(species, island) %>%
  summarise(
    prob = c(.25, .75),
    across(where(is.numeric) & !year, ~ quantile(., prob, na.rm = TRUE))
  )
## # A tibble: 10 x 7
## # Groups:   species, island [5]
##   species island     prob bill_length_mm bill_depth_mm
##   <fct>   <fct>     <dbl>          <dbl>         <dbl>
## 1 Adelie  Biscoe    0.375           37.7          17.6
## 2 Adelie  Biscoe    0.625           40.7          19.0
## 3 Adelie  Dream     0.375           36.8          17.5
## 4 Adelie  Dream     0.625           40.4          18.8
## 5 Adelie  Torgersen 0.375           36.7          17.4
## 6 Adelie  Torgersen 0.625           41.1          19.2
## # ... with 4 more rows, and 2 more variables:
## #   flipper_length_mm <dbl>, body_mass_g <dbl>
```
…
### 1.3.6 数据标准化处理

```
std <- function(x) {
  (x - mean(x, na.rm = TRUE)) / sd(x, na.rm = TRUE)
}

# using across()
penguins %>%
  summarise(
    across(where(is.numeric), std),
    across(where(is.character), as.factor)
  )
## # A tibble: 344 x 5
##   bill_length_mm bill_depth_mm flipper_length_mm
##            <dbl>         <dbl>             <dbl>
## 1         -0.883         0.784            -1.42 
## 2         -0.810         0.126            -1.06 
## 3         -0.663         0.430            -0.421
## 4         NA            NA                NA    
## 5         -1.32          1.09             -0.563
## 6         -0.847         1.75             -0.776
## # ... with 338 more rows, and 2 more variables:
## #   body_mass_g <dbl>, year <dbl>
```



```
# using across() and purrr style
penguins %>%
  drop_na() %>% 
  summarise(
    across(starts_with("bill_"), ~ (.x - mean(.x)) / sd(.x))
  )
## # A tibble: 333 x 2
##   bill_length_mm bill_depth_mm
##            <dbl>         <dbl>
## 1         -0.895         0.780
## 2         -0.822         0.119
## 3         -0.675         0.424
## 4         -1.33          1.08 
## 5         -0.858         1.74 
## 6         -0.931         0.323
## # ... with 327 more rows
```

### 1.3.7 数据对数化处理

```
# using across()
penguins %>%
  drop_na() %>%
  mutate(
    across(where(is.numeric), log),
    across(where(is.character), as.factor)
  )
## # A tibble: 333 x 8
##   species island    bill_length_mm bill_depth_mm
##   <fct>   <fct>              <dbl>         <dbl>
## 1 Adelie  Torgersen           3.67          2.93
## 2 Adelie  Torgersen           3.68          2.86
## 3 Adelie  Torgersen           3.70          2.89
## 4 Adelie  Torgersen           3.60          2.96
## 5 Adelie  Torgersen           3.67          3.03
## 6 Adelie  Torgersen           3.66          2.88
## # ... with 327 more rows, and 4 more variables:
## #   flipper_length_mm <dbl>, body_mass_g <dbl>,
## #   sex <fct>, year <dbl>
```



```
# using across()
penguins %>%
  drop_na() %>%
  mutate(
    across(where(is.numeric), .fns = list(log = log), .names = "{.fn}_{.col}"),
    across(where(is.character), as.factor)
  )
## # A tibble: 333 x 13
##   species island    bill_length_mm bill_depth_mm
##   <fct>   <fct>              <dbl>         <dbl>
## 1 Adelie  Torgersen           39.1          18.7
## 2 Adelie  Torgersen           39.5          17.4
## 3 Adelie  Torgersen           40.3          18  
## 4 Adelie  Torgersen           36.7          19.3
## 5 Adelie  Torgersen           39.3          20.6
## 6 Adelie  Torgersen           38.9          17.8
## # ... with 327 more rows, and 9 more variables:
## #   flipper_length_mm <int>, body_mass_g <int>,
## #   sex <fct>, year <int>, log_bill_length_mm <dbl>,
## #   log_bill_depth_mm <dbl>,
## #   log_flipper_length_mm <dbl>,
## #   log_body_mass_g <dbl>, log_year <dbl>
```
…
```
penguins %>%
  group_by(species) %>%
  summarise(
    broom::tidy(lm(bill_length_mm ~ ., data = cur_data() %>% select(is.numeric)))
  )
## # A tibble: 15 x 6
## # Groups:   species [3]
##   species  term    estimate std.error statistic p.value
##   <fct>    <chr>      <dbl>     <dbl>     <dbl>   <dbl>
## 1 Adelie   (Inter~ -2.75e+2   5.09e+2    -0.539 5.90e-1
## 2 Adelie   bill_d~  2.70e-1   1.92e-1     1.40  1.63e-1
## 3 Adelie   flippe~  2.51e-2   3.50e-2     0.717 4.74e-1
## 4 Adelie   body_m~  2.62e-3   5.25e-4     4.98  1.74e-6
## 5 Adelie   year     1.47e-1   2.55e-1     0.576 5.66e-1
## 6 Chinstr~ (Inter~ -4.20e+2   8.24e+2    -0.509 6.12e-1
## # ... with 9 more rows
```



```
penguins %>%
  group_by(species) %>%
  summarise(
    broom::tidy(lm(bill_length_mm ~ .,
                data = cur_data() %>% transmute(across(is.numeric))
    ))
  )
## # A tibble: 15 x 6
## # Groups:   species [3]
##   species  term    estimate std.error statistic p.value
##   <fct>    <chr>      <dbl>     <dbl>     <dbl>   <dbl>
## 1 Adelie   (Inter~ -2.75e+2   5.09e+2    -0.539 5.90e-1
## 2 Adelie   bill_d~  2.70e-1   1.92e-1     1.40  1.63e-1
## 3 Adelie   flippe~  2.51e-2   3.50e-2     0.717 4.74e-1
## 4 Adelie   body_m~  2.62e-3   5.25e-4     4.98  1.74e-6
## 5 Adelie   year     1.47e-1   2.55e-1     0.576 5.66e-1
## 6 Chinstr~ (Inter~ -4.20e+2   8.24e+2    -0.509 6.12e-1
## # ... with 9 more rows
```



```
penguins %>%
  group_by(species) %>%
  summarise(
    broom::tidy(lm(bill_length_mm ~ ., data = across(is.numeric)))
  )
## # A tibble: 15 x 6
## # Groups:   species [3]
##   species  term    estimate std.error statistic p.value
##   <fct>    <chr>      <dbl>     <dbl>     <dbl>   <dbl>
## 1 Adelie   (Inter~ -2.75e+2   5.09e+2    -0.539 5.90e-1
## 2 Adelie   bill_d~  2.70e-1   1.92e-1     1.40  1.63e-1
## 3 Adelie   flippe~  2.51e-2   3.50e-2     0.717 4.74e-1
## 4 Adelie   body_m~  2.62e-3   5.25e-4     4.98  1.74e-6
## 5 Adelie   year     1.47e-1   2.55e-1     0.576 5.66e-1
## 6 Chinstr~ (Inter~ -4.20e+2   8.24e+2    -0.509 6.12e-1
## # ... with 9 more rows
```
…
